state { altitude: { max: 30 },
  version: '01.03.33.01\u0000\u0000\u0000\u0000\u0000\u0000\u0000\u0000\u0000',
  speed: { north: 0, east: 0, ground: 0, vertical: 0 },
  fly_time: { time: 0 },
  wifi: { signal: 90, interference: 0 },
  LOG: {},
  state:
   { imu: { state: 0, calibration: 0 },
     pressure: 0,
     down_visual: 0,
     power: 0,
     battery:
      { state: 0,
        percentage: 58,
        left: 0,
        low: 0,
        lower: 0,
        voltage: 3880 },
     gravity: 0,
     wind: 0,
     em: { state: 0, sky: 0, ground: 0, open: 0 },
     temperature_height: 0,
     factory_mode: 0,
     fly_mode: 1,
     drone_hover: 0,
     outage_recording: 0,
     throw_fly_timer: 0,
     camera: 0,
     front: { in: 0, out: 0, lsc: 0 } },
  light: 1,
  'IMU.ACC_X': -0.15477503836154938,
  'IMU.ACC_Y': -0.03042188659310341,
  'IMU.ACC_Z': -0.9794771075248718,
  'IMU.GYRO_X': -0.004198282491415739,
  'IMU.GYRO_Y': 0.01710541546344757,
  'IMU.GYRO_Z': 0.004658317193388939,
  'IMU.PRESS': -134.4979248046875,
  'IMU.Q_W': 0.996778130531311,
  'IMU.Q_X': 0.014151430688798428,
  'IMU.Q_Y': -0.07894985377788544,
  'IMU.Q_Z': -0.00021734426263719797,
  'IMU.ag_x': 0.020489215850830078,
  'IMU.ag_y': -0.02175898849964142,
  'IMU.ag_z': 0.0029706954956054688,
  'IMU.vg_x': 0,
  'IMU.vg_y': 0,
  'IMU.vg_z': 0.057011913508176804,
  'IMU.gb_x': -0.0040509337559342384,
  'IMU.gb_y': 0.017903540283441544,
  'IMU.gb_z': 0.003726482391357422,
  'IMU.m_x': 0,
  'IMU.m_y': 0,
  'IMU.m_z': 0,
  'IMU.temp_x': 3199,
  'IMU.temp_y': 500,
  'IMU.temp_z': 2593,
  'IMU.ANGLE_ROLL': 1.639023443224905,
  'IMU.ANGLE_PITCH': -9.055134503932646,
  'IMU.ANGLE_YAW': -0.15478256853252048,
  'MVO.VX': 0,
  'MVO.VY': 0,
  'MVO.VZ': 0,
  'MVO.PX': 0.016565846279263496,
  'MVO.PY': 0.012093580327928066,
  'MVO.PZ': -0.0020779829937964678,
  'MVO.HEIGHT': -0.10000000149011612,
  'USONIC.H': 100,
  'USONIC.FLAG': 1,
  'USONIC.CNT': 35 }